%YAML 1.1
%TAG !u! tag:unity3d.com,2011:
--- !u!1 &6784226036512615710
GameObject:
  m_ObjectHideFlags: 0
  m_CorrespondingSourceObject: {fileID: 0}
  m_PrefabInstance: {fileID: 0}
  m_PrefabAsset: {fileID: 0}
  serializedVersion: 6
  m_Component:
  - component: {fileID: 6784226036512615711}
  - component: {fileID: 6784226036512615708}
  - component: {fileID: 6784226036512615709}
  - component: {fileID: 6784226036512615706}
  m_Layer: 8
  m_Name: Door_001
  m_TagString: Untagged
  m_Icon: {fileID: 0}
  m_NavMeshLayer: 0
  m_StaticEditorFlags: 4294967295
  m_IsActive: 1
--- !u!4 &6784226036512615711
Transform:
  m_ObjectHideFlags: 0
  m_CorrespondingSourceObject: {fileID: 0}
  m_PrefabInstance: {fileID: 0}
  m_PrefabAsset: {fileID: 0}
  m_GameObject: {fileID: 6784226036512615710}
  m_LocalRotation: {x: -0, y: -0, z: -0, w: 1}
  m_LocalPosition: {x: 2.5, y: 0, z: -1.75}
  m_LocalScale: {x: 1, y: 1, z: 1}
  m_Children:
  - {fileID: 6784995566216680327}
  - {fileID: 6784706251367747292}
  - {fileID: 6785094849972586212}
  - {fileID: 6784914253874054720}
  m_Father: {fileID: 0}
  m_RootOrder: 0
  m_LocalEulerAnglesHint: {x: 0, y: 0, z: 0}
--- !u!114 &6784226036512615708
MonoBehaviour:
  m_ObjectHideFlags: 0
  m_CorrespondingSourceObject: {fileID: 0}
  m_PrefabInstance: {fileID: 0}
  m_PrefabAsset: {fileID: 0}
  m_GameObject: {fileID: 6784226036512615710}
  m_Enabled: 1
  m_EditorHideFlags: 0
  m_Script: {fileID: 11500000, guid: e66d2afc7353f4852ba309a0d0c785f0, type: 3}
  m_Name: 
  m_EditorClassIdentifier: 
  halfDoorLeftTransform: {fileID: 6784995566216680327}
  halfDoorRightTransform: {fileID: 6784706251367747292}
  slideDistance: 0.88
  speed: 1
  doorOpeningSoundClip: {fileID: 8300000, guid: 80d08fa5dccc64ffa90d6734ce03512e,
    type: 3}
  doorClosingSoundClip: {fileID: 8300000, guid: 4547fb4d1627d4ce6acc55af375f84f4,
    type: 3}
--- !u!65 &6784226036512615709
BoxCollider:
  m_ObjectHideFlags: 0
  m_CorrespondingSourceObject: {fileID: 0}
  m_PrefabInstance: {fileID: 0}
  m_PrefabAsset: {fileID: 0}
  m_GameObject: {fileID: 6784226036512615710}
  m_Material: {fileID: 0}
  m_IsTrigger: 1
  m_Enabled: 1
  serializedVersion: 2
  m_Size: {x: 2, y: 0.5, z: 3.5}
  m_Center: {x: 0, y: 0.25, z: 0}
--- !u!82 &6784226036512615706
AudioSource:
  m_ObjectHideFlags: 0
  m_CorrespondingSourceObject: {fileID: 0}
  m_PrefabInstance: {fileID: 0}
  m_PrefabAsset: {fileID: 0}
  m_GameObject: {fileID: 6784226036512615710}
  m_Enabled: 1
  serializedVersion: 4
  OutputAudioMixerGroup: {fileID: 0}
  m_audioClip: {fileID: 0}
  m_PlayOnAwake: 1
  m_Volume: 1
  m_Pitch: 1
  Loop: 0
  Mute: 0
  Spatialize: 0
  SpatializePostEffects: 0
  Priority: 128
  DopplerLevel: 1
  MinDistance: 1
  MaxDistance: 500
  Pan2D: 0
  rolloffMode: 0
  BypassEffects: 0
  BypassListenerEffects: 0
  BypassReverbZones: 0
  rolloffCustomCurve:
    serializedVersion: 2
    m_Curve:
    - serializedVersion: 3
      time: 0
      value: 1
      inSlope: 0
      outSlope: 0
      tangentMode: 0
      weightedMode: 0
      inWeight: 0.33333334
      outWeight: 0.33333334
    - serializedVersion: 3
      time: 1
      value: 0
      inSlope: 0
      outSlope: 0
      tangentMode: 0
      weightedMode: 0
      inWeight: 0.33333334
      outWeight: 0.33333334
    m_PreInfinity: 2
    m_PostInfinity: 2
    m_RotationOrder: 4
  panLevelCustomCurve:
    serializedVersion: 2
    m_Curve:
    - serializedVersion: 3
      time: 0
      value: 0
      inSlope: 0
      outSlope: 0
      tangentMode: 0
      weightedMode: 0
      inWeight: 0.33333334
      outWeight: 0.33333334
    m_PreInfinity: 2
    m_PostInfinity: 2
    m_RotationOrder: 0
  spreadCustomCurve:
    serializedVersion: 2
    m_Curve:
    - serializedVersion: 3
      time: 0
      value: 0
      inSlope: 0
      outSlope: 0
      tangentMode: 0
      weightedMode: 0
      inWeight: 0.33333334
      outWeight: 0.33333334
    m_PreInfinity: 2
    m_PostInfinity: 2
    m_RotationOrder: 4
  reverbZoneMixCustomCurve:
    serializedVersion: 2
    m_Curve:
    - serializedVersion: 3
      time: 0
      value: 1
      inSlope: 0
      outSlope: 0
      tangentMode: 0
      weightedMode: 0
      inWeight: 0.33333334
      outWeight: 0.33333334
    m_PreInfinity: 2
    m_PostInfinity: 2
    m_RotationOrder: 0
--- !u!1001 &6784226036167325443
PrefabInstance:
  m_ObjectHideFlags: 0
  serializedVersion: 2
  m_Modification:
    m_TransformParent: {fileID: 6784226036512615711}
    m_Modifications:
    - target: {fileID: 1945500173880598, guid: e8d67716b3656432d914de36d1184d45, type: 3}
      propertyPath: m_Layer
      value: 8
      objectReference: {fileID: 0}
    - target: {fileID: 1945500173880598, guid: e8d67716b3656432d914de36d1184d45, type: 3}
      propertyPath: m_IsActive
      value: 1
      objectReference: {fileID: 0}
    - target: {fileID: 1945500173880598, guid: e8d67716b3656432d914de36d1184d45, type: 3}
      propertyPath: m_StaticEditorFlags
      value: 0
      objectReference: {fileID: 0}
    - target: {fileID: 4305852610094212, guid: e8d67716b3656432d914de36d1184d45, type: 3}
      propertyPath: m_RootOrder
      value: 0
      objectReference: {fileID: 0}
    - target: {fileID: 4305852610094212, guid: e8d67716b3656432d914de36d1184d45, type: 3}
      propertyPath: m_LocalPosition.x
      value: 0
      objectReference: {fileID: 0}
    - target: {fileID: 4305852610094212, guid: e8d67716b3656432d914de36d1184d45, type: 3}
      propertyPath: m_LocalPosition.y
      value: 0
      objectReference: {fileID: 0}
    - target: {fileID: 4305852610094212, guid: e8d67716b3656432d914de36d1184d45, type: 3}
      propertyPath: m_LocalPosition.z
      value: 0
      objectReference: {fileID: 0}
    - target: {fileID: 4305852610094212, guid: e8d67716b3656432d914de36d1184d45, type: 3}
      propertyPath: m_LocalRotation.w
      value: 0.5
      objectReference: {fileID: 0}
    - target: {fileID: 4305852610094212, guid: e8d67716b3656432d914de36d1184d45, type: 3}
      propertyPath: m_LocalRotation.x
      value: -0.5
      objectReference: {fileID: 0}
    - target: {fileID: 4305852610094212, guid: e8d67716b3656432d914de36d1184d45, type: 3}
      propertyPath: m_LocalRotation.y
      value: 0.5
      objectReference: {fileID: 0}
    - target: {fileID: 4305852610094212, guid: e8d67716b3656432d914de36d1184d45, type: 3}
      propertyPath: m_LocalRotation.z
      value: 0.5
      objectReference: {fileID: 0}
    - target: {fileID: 4305852610094212, guid: e8d67716b3656432d914de36d1184d45, type: 3}
      propertyPath: m_LocalEulerAnglesHint.x
      value: -90.00001
      objectReference: {fileID: 0}
    - target: {fileID: 4305852610094212, guid: e8d67716b3656432d914de36d1184d45, type: 3}
      propertyPath: m_LocalEulerAnglesHint.y
      value: 90
      objectReference: {fileID: 0}
    m_RemovedComponents: []
  m_SourcePrefab: {fileID: 100100000, guid: e8d67716b3656432d914de36d1184d45, type: 3}
--- !u!4 &6784995566216680327 stripped
Transform:
  m_CorrespondingSourceObject: {fileID: 4305852610094212, guid: e8d67716b3656432d914de36d1184d45,
    type: 3}
  m_PrefabInstance: {fileID: 6784226036167325443}
  m_PrefabAsset: {fileID: 0}
--- !u!1001 &6784226036480214024
PrefabInstance:
  m_ObjectHideFlags: 0
  serializedVersion: 2
  m_Modification:
    m_TransformParent: {fileID: 6784226036512615711}
    m_Modifications:
    - target: {fileID: 1841248865720924, guid: a278f26168d4240f1b6750a38747bc3d, type: 3}
      propertyPath: m_Layer
      value: 8
      objectReference: {fileID: 0}
    - target: {fileID: 1841248865720924, guid: a278f26168d4240f1b6750a38747bc3d, type: 3}
      propertyPath: m_StaticEditorFlags
      value: 0
      objectReference: {fileID: 0}
    - target: {fileID: 4072321668713172, guid: a278f26168d4240f1b6750a38747bc3d, type: 3}
      propertyPath: m_RootOrder
      value: 1
      objectReference: {fileID: 0}
    - target: {fileID: 4072321668713172, guid: a278f26168d4240f1b6750a38747bc3d, type: 3}
      propertyPath: m_LocalPosition.x
      value: 0
      objectReference: {fileID: 0}
    - target: {fileID: 4072321668713172, guid: a278f26168d4240f1b6750a38747bc3d, type: 3}
      propertyPath: m_LocalPosition.y
      value: 0
      objectReference: {fileID: 0}
    - target: {fileID: 4072321668713172, guid: a278f26168d4240f1b6750a38747bc3d, type: 3}
      propertyPath: m_LocalPosition.z
      value: 0
      objectReference: {fileID: 0}
    - target: {fileID: 4072321668713172, guid: a278f26168d4240f1b6750a38747bc3d, type: 3}
      propertyPath: m_LocalRotation.w
      value: 0.5
      objectReference: {fileID: 0}
    - target: {fileID: 4072321668713172, guid: a278f26168d4240f1b6750a38747bc3d, type: 3}
      propertyPath: m_LocalRotation.x
      value: -0.5
      objectReference: {fileID: 0}
    - target: {fileID: 4072321668713172, guid: a278f26168d4240f1b6750a38747bc3d, type: 3}
      propertyPath: m_LocalRotation.y
      value: 0.5
      objectReference: {fileID: 0}
    - target: {fileID: 4072321668713172, guid: a278f26168d4240f1b6750a38747bc3d, type: 3}
      propertyPath: m_LocalRotation.z
      value: 0.5
      objectReference: {fileID: 0}
    - target: {fileID: 4072321668713172, guid: a278f26168d4240f1b6750a38747bc3d, type: 3}
      propertyPath: m_LocalEulerAnglesHint.x
      value: -90.00001
      objectReference: {fileID: 0}
    - target: {fileID: 4072321668713172, guid: a278f26168d4240f1b6750a38747bc3d, type: 3}
      propertyPath: m_LocalEulerAnglesHint.y
      value: 90
      objectReference: {fileID: 0}
    m_RemovedComponents: []
  m_SourcePrefab: {fileID: 100100000, guid: a278f26168d4240f1b6750a38747bc3d, type: 3}
--- !u!4 &6784706251367747292 stripped
Transform:
  m_CorrespondingSourceObject: {fileID: 4072321668713172, guid: a278f26168d4240f1b6750a38747bc3d,
    type: 3}
  m_PrefabInstance: {fileID: 6784226036480214024}
  m_PrefabAsset: {fileID: 0}
--- !u!1001 &6784226036690251508
PrefabInstance:
  m_ObjectHideFlags: 0
  serializedVersion: 2
  m_Modification:
    m_TransformParent: {fileID: 6784226036512615711}
    m_Modifications:
    - target: {fileID: 1835801818997348, guid: a4645edf24a14487aa16adbc4bf27745, type: 3}
      propertyPath: m_Layer
      value: 8
      objectReference: {fileID: 0}
    - target: {fileID: 1835801818997348, guid: a4645edf24a14487aa16adbc4bf27745, type: 3}
      propertyPath: m_StaticEditorFlags
      value: 4294967295
      objectReference: {fileID: 0}
    - target: {fileID: 4136577714694324, guid: a4645edf24a14487aa16adbc4bf27745, type: 3}
      propertyPath: m_RootOrder
      value: 3
      objectReference: {fileID: 0}
    - target: {fileID: 4136577714694324, guid: a4645edf24a14487aa16adbc4bf27745, type: 3}
      propertyPath: m_LocalPosition.x
      value: 0
      objectReference: {fileID: 0}
    - target: {fileID: 4136577714694324, guid: a4645edf24a14487aa16adbc4bf27745, type: 3}
      propertyPath: m_LocalPosition.y
      value: 0
      objectReference: {fileID: 0}
    - target: {fileID: 4136577714694324, guid: a4645edf24a14487aa16adbc4bf27745, type: 3}
      propertyPath: m_LocalPosition.z
      value: 0
      objectReference: {fileID: 0}
    - target: {fileID: 4136577714694324, guid: a4645edf24a14487aa16adbc4bf27745, type: 3}
      propertyPath: m_LocalRotation.w
      value: 0.5
      objectReference: {fileID: 0}
    - target: {fileID: 4136577714694324, guid: a4645edf24a14487aa16adbc4bf27745, type: 3}
      propertyPath: m_LocalRotation.x
      value: -0.5
      objectReference: {fileID: 0}
    - target: {fileID: 4136577714694324, guid: a4645edf24a14487aa16adbc4bf27745, type: 3}
      propertyPath: m_LocalRotation.y
      value: 0.5
      objectReference: {fileID: 0}
    - target: {fileID: 4136577714694324, guid: a4645edf24a14487aa16adbc4bf27745, type: 3}
      propertyPath: m_LocalRotation.z
      value: 0.5
      objectReference: {fileID: 0}
    - target: {fileID: 4136577714694324, guid: a4645edf24a14487aa16adbc4bf27745, type: 3}
      propertyPath: m_LocalEulerAnglesHint.x
      value: -90.00001
      objectReference: {fileID: 0}
    - target: {fileID: 4136577714694324, guid: a4645edf24a14487aa16adbc4bf27745, type: 3}
      propertyPath: m_LocalEulerAnglesHint.y
      value: 90
      objectReference: {fileID: 0}
    m_RemovedComponents: []
  m_SourcePrefab: {fileID: 100100000, guid: a4645edf24a14487aa16adbc4bf27745, type: 3}
--- !u!4 &6784914253874054720 stripped
Transform:
  m_CorrespondingSourceObject: {fileID: 4136577714694324, guid: a4645edf24a14487aa16adbc4bf27745,
    type: 3}
  m_PrefabInstance: {fileID: 6784226036690251508}
  m_PrefabAsset: {fileID: 0}
--- !u!1001 &6784226037052724946
PrefabInstance:
  m_ObjectHideFlags: 0
  serializedVersion: 2
  m_Modification:
    m_TransformParent: {fileID: 6784226036512615711}
    m_Modifications:
    - target: {fileID: 1148737543665222, guid: 25ed497ca36fe4afbbb3a241a44035e2, type: 3}
      propertyPath: m_Layer
      value: 8
      objectReference: {fileID: 0}
    - target: {fileID: 1148737543665222, guid: 25ed497ca36fe4afbbb3a241a44035e2, type: 3}
      propertyPath: m_StaticEditorFlags
      value: 4294967295
      objectReference: {fileID: 0}
    - target: {fileID: 4246811276021814, guid: 25ed497ca36fe4afbbb3a241a44035e2, type: 3}
      propertyPath: m_RootOrder
      value: 2
      objectReference: {fileID: 0}
    - target: {fileID: 4246811276021814, guid: 25ed497ca36fe4afbbb3a241a44035e2, type: 3}
      propertyPath: m_LocalPosition.x
      value: 0
      objectReference: {fileID: 0}
    - target: {fileID: 4246811276021814, guid: 25ed497ca36fe4afbbb3a241a44035e2, type: 3}
      propertyPath: m_LocalPosition.y
      value: 0
      objectReference: {fileID: 0}
    - target: {fileID: 4246811276021814, guid: 25ed497ca36fe4afbbb3a241a44035e2, type: 3}
      propertyPath: m_LocalPosition.z
      value: 0
      objectReference: {fileID: 0}
    - target: {fileID: 4246811276021814, guid: 25ed497ca36fe4afbbb3a241a44035e2, type: 3}
      propertyPath: m_LocalRotation.w
      value: 0.5
      objectReference: {fileID: 0}
    - target: {fileID: 4246811276021814, guid: 25ed497ca36fe4afbbb3a241a44035e2, type: 3}
      propertyPath: m_LocalRotation.x
      value: -0.5
      objectReference: {fileID: 0}
    - target: {fileID: 4246811276021814, guid: 25ed497ca36fe4afbbb3a241a44035e2, type: 3}
      propertyPath: m_LocalRotation.y
      value: 0.5
      objectReference: {fileID: 0}
    - target: {fileID: 4246811276021814, guid: 25ed497ca36fe4afbbb3a241a44035e2, type: 3}
      propertyPath: m_LocalRotation.z
      value: 0.5
      objectReference: {fileID: 0}
    - target: {fileID: 4246811276021814, guid: 25ed497ca36fe4afbbb3a241a44035e2, type: 3}
      propertyPath: m_LocalEulerAnglesHint.x
      value: -90.00001
      objectReference: {fileID: 0}
    - target: {fileID: 4246811276021814, guid: 25ed497ca36fe4afbbb3a241a44035e2, type: 3}
      propertyPath: m_LocalEulerAnglesHint.y
      value: 90
      objectReference: {fileID: 0}
    m_RemovedComponents: []
  m_SourcePrefab: {fileID: 100100000, guid: 25ed497ca36fe4afbbb3a241a44035e2, type: 3}
--- !u!4 &6785094849972586212 stripped
Transform:
  m_CorrespondingSourceObject: {fileID: 4246811276021814, guid: 25ed497ca36fe4afbbb3a241a44035e2,
    type: 3}
  m_PrefabInstance: {fileID: 6784226037052724946}
  m_PrefabAsset: {fileID: 0}
