%YAML 1.1
%TAG !u! tag:unity3d.com,2011:
--- !u!29 &1
OcclusionCullingSettings:
  m_ObjectHideFlags: 0
  serializedVersion: 2
  m_OcclusionBakeSettings:
    smallestOccluder: 5
    smallestHole: 0.25
    backfaceThreshold: 100
  m_SceneGUID: 00000000000000000000000000000000
  m_OcclusionCullingData: {fileID: 0}
--- !u!104 &2
RenderSettings:
  m_ObjectHideFlags: 0
  serializedVersion: 9
  m_Fog: 0
  m_FogColor: {r: 0.5, g: 0.5, b: 0.5, a: 1}
  m_FogMode: 3
  m_FogDensity: 0.01
  m_LinearFogStart: 0
  m_LinearFogEnd: 300
  m_AmbientSkyColor: {r: 0.78431374, g: 0.78431374, b: 0.78431374, a: 1}
  m_AmbientEquatorColor: {r: 0.114, g: 0.125, b: 0.133, a: 1}
  m_AmbientGroundColor: {r: 0.047, g: 0.043, b: 0.035, a: 1}
  m_AmbientIntensity: 1
  m_AmbientMode: 3
  m_SubtractiveShadowColor: {r: 0.42, g: 0.478, b: 0.627, a: 1}
  m_SkyboxMaterial: {fileID: 0}
  m_HaloStrength: 0.5
  m_FlareStrength: 1
  m_FlareFadeSpeed: 3
  m_HaloTexture: {fileID: 0}
  m_SpotCookie: {fileID: 10001, guid: 0000000000000000e000000000000000, type: 0}
  m_DefaultReflectionMode: 0
  m_DefaultReflectionResolution: 128
  m_ReflectionBounces: 1
  m_ReflectionIntensity: 1
  m_CustomReflection: {fileID: 0}
  m_Sun: {fileID: 0}
  m_IndirectSpecularColor: {r: 0, g: 0, b: 0, a: 1}
  m_UseRadianceAmbientProbe: 0
--- !u!157 &3
LightmapSettings:
  m_ObjectHideFlags: 0
  serializedVersion: 11
  m_GIWorkflowMode: 1
  m_GISettings:
    serializedVersion: 2
    m_BounceScale: 1
    m_IndirectOutputScale: 1
    m_AlbedoBoost: 1
    m_EnvironmentLightingMode: 0
    m_EnableBakedLightmaps: 1
    m_EnableRealtimeLightmaps: 0
  m_LightmapEditorSettings:
    serializedVersion: 12
    m_Resolution: 2
    m_BakeResolution: 10
    m_AtlasSize: 512
    m_AO: 0
    m_AOMaxDistance: 1
    m_CompAOExponent: 1
    m_CompAOExponentDirect: 0
    m_ExtractAmbientOcclusion: 0
    m_Padding: 2
    m_LightmapParameters: {fileID: 0}
    m_LightmapsBakeMode: 1
    m_TextureCompression: 1
    m_FinalGather: 0
    m_FinalGatherFiltering: 1
    m_FinalGatherRayCount: 256
    m_ReflectionCompression: 2
    m_MixedBakeMode: 2
    m_BakeBackend: 1
    m_PVRSampling: 1
    m_PVRDirectSampleCount: 32
    m_PVRSampleCount: 256
    m_PVRBounces: 2
    m_PVREnvironmentSampleCount: 256
    m_PVREnvironmentReferencePointCount: 2048
    m_PVRFilteringMode: 2
    m_PVRDenoiserTypeDirect: 0
    m_PVRDenoiserTypeIndirect: 0
    m_PVRDenoiserTypeAO: 0
    m_PVRFilterTypeDirect: 0
    m_PVRFilterTypeIndirect: 0
    m_PVRFilterTypeAO: 0
    m_PVREnvironmentMIS: 0
    m_PVRCulling: 1
    m_PVRFilteringGaussRadiusDirect: 1
    m_PVRFilteringGaussRadiusIndirect: 5
    m_PVRFilteringGaussRadiusAO: 2
    m_PVRFilteringAtrousPositionSigmaDirect: 0.5
    m_PVRFilteringAtrousPositionSigmaIndirect: 2
    m_PVRFilteringAtrousPositionSigmaAO: 1
    m_ExportTrainingData: 0
    m_TrainingDataDestination: TrainingData
    m_LightProbeSampleCountMultiplier: 4
  m_LightingDataAsset: {fileID: 0}
  m_UseShadowmask: 1
--- !u!196 &4
NavMeshSettings:
  serializedVersion: 2
  m_ObjectHideFlags: 0
  m_BuildSettings:
    serializedVersion: 2
    agentTypeID: 0
    agentRadius: 0.5
    agentHeight: 2
    agentSlope: 45
    agentClimb: 0.4
    ledgeDropHeight: 0
    maxJumpAcrossDistance: 0
    minRegionArea: 2
    manualCellSize: 0
    cellSize: 0.16666667
    manualTileSize: 0
    tileSize: 256
    accuratePlacement: 0
    debug:
      m_Flags: 0
  m_NavMeshData: {fileID: 0}
--- !u!1001 &10582694
PrefabInstance:
  m_ObjectHideFlags: 0
  serializedVersion: 2
  m_Modification:
    m_TransformParent: {fileID: 1439803131}
    m_Modifications:
    - target: {fileID: 4732421097043446, guid: 9e67197f1a146e245876cb153e7385fd, type: 3}
      propertyPath: m_RootOrder
      value: 8
      objectReference: {fileID: 0}
    - target: {fileID: 4732421097043446, guid: 9e67197f1a146e245876cb153e7385fd, type: 3}
      propertyPath: m_LocalPosition.x
      value: 0.712
      objectReference: {fileID: 0}
    - target: {fileID: 4732421097043446, guid: 9e67197f1a146e245876cb153e7385fd, type: 3}
      propertyPath: m_LocalPosition.y
      value: 0.129
      objectReference: {fileID: 0}
    - target: {fileID: 4732421097043446, guid: 9e67197f1a146e245876cb153e7385fd, type: 3}
      propertyPath: m_LocalPosition.z
      value: 0.497
      objectReference: {fileID: 0}
    - target: {fileID: 4732421097043446, guid: 9e67197f1a146e245876cb153e7385fd, type: 3}
      propertyPath: m_LocalRotation.w
      value: 0.965926
      objectReference: {fileID: 0}
    - target: {fileID: 4732421097043446, guid: 9e67197f1a146e245876cb153e7385fd, type: 3}
      propertyPath: m_LocalRotation.x
      value: -0
      objectReference: {fileID: 0}
    - target: {fileID: 4732421097043446, guid: 9e67197f1a146e245876cb153e7385fd, type: 3}
      propertyPath: m_LocalRotation.y
      value: -0
      objectReference: {fileID: 0}
    - target: {fileID: 4732421097043446, guid: 9e67197f1a146e245876cb153e7385fd, type: 3}
      propertyPath: m_LocalRotation.z
      value: -0.2588186
      objectReference: {fileID: 0}
    m_RemovedComponents: []
  m_SourcePrefab: {fileID: 100100000, guid: 9e67197f1a146e245876cb153e7385fd, type: 3}
--- !u!4 &10582695 stripped
Transform:
  m_CorrespondingSourceObject: {fileID: 4732421097043446, guid: 9e67197f1a146e245876cb153e7385fd,
    type: 3}
  m_PrefabInstance: {fileID: 10582694}
  m_PrefabAsset: {fileID: 0}
--- !u!1 &170076733
GameObject:
  m_ObjectHideFlags: 0
  m_CorrespondingSourceObject: {fileID: 0}
  m_PrefabInstance: {fileID: 0}
  m_PrefabAsset: {fileID: 0}
  serializedVersion: 6
  m_Component:
  - component: {fileID: 170076735}
  - component: {fileID: 170076734}
  m_Layer: 0
  m_Name: Directional Light
  m_TagString: Untagged
  m_Icon: {fileID: 0}
  m_NavMeshLayer: 0
  m_StaticEditorFlags: 0
  m_IsActive: 1
--- !u!108 &170076734
Light:
  m_ObjectHideFlags: 0
  m_CorrespondingSourceObject: {fileID: 0}
  m_PrefabInstance: {fileID: 0}
  m_PrefabAsset: {fileID: 0}
  m_GameObject: {fileID: 170076733}
  m_Enabled: 1
  serializedVersion: 10
  m_Type: 1
  m_Shape: 0
  m_Color: {r: 1, g: 0.95686275, b: 0.8392157, a: 1}
  m_Intensity: 1
  m_Range: 10
  m_SpotAngle: 30
  m_InnerSpotAngle: 21.80208
  m_CookieSize: 10
  m_Shadows:
    m_Type: 2
    m_Resolution: -1
    m_CustomResolution: -1
    m_Strength: 1
    m_Bias: 0.05
    m_NormalBias: 0.4
    m_NearPlane: 0.2
    m_CullingMatrixOverride:
      e00: 1
      e01: 0
      e02: 0
      e03: 0
      e10: 0
      e11: 1
      e12: 0
      e13: 0
      e20: 0
      e21: 0
      e22: 1
      e23: 0
      e30: 0
      e31: 0
      e32: 0
      e33: 1
    m_UseCullingMatrixOverride: 0
  m_Cookie: {fileID: 0}
  m_DrawHalo: 0
  m_Flare: {fileID: 0}
  m_RenderMode: 0
  m_CullingMask:
    serializedVersion: 2
    m_Bits: 4294967295
  m_RenderingLayerMask: 1
  m_Lightmapping: 4
  m_LightShadowCasterMode: 0
  m_AreaSize: {x: 1, y: 1}
  m_BounceIntensity: 1
  m_ColorTemperature: 6570
  m_UseColorTemperature: 0
  m_BoundingSphereOverride: {x: 0, y: 0, z: 0, w: 0}
  m_UseBoundingSphereOverride: 0
  m_ShadowRadius: 0
  m_ShadowAngle: 0
--- !u!4 &170076735
Transform:
  m_ObjectHideFlags: 0
  m_CorrespondingSourceObject: {fileID: 0}
  m_PrefabInstance: {fileID: 0}
  m_PrefabAsset: {fileID: 0}
  m_GameObject: {fileID: 170076733}
  m_LocalRotation: {x: 0.36290967, y: -0.54934996, z: 0.09150625, w: 0.7470862}
  m_LocalPosition: {x: 0, y: 3, z: 0}
  m_LocalScale: {x: 1, y: 1, z: 1}
  m_Children: []
  m_Father: {fileID: 1042475201}
  m_RootOrder: 1
  m_LocalEulerAnglesHint: {x: 40, y: -80, z: -20}
--- !u!1 &190132950
GameObject:
  m_ObjectHideFlags: 0
  m_CorrespondingSourceObject: {fileID: 0}
  m_PrefabInstance: {fileID: 0}
  m_PrefabAsset: {fileID: 0}
  serializedVersion: 6
  m_Component:
  - component: {fileID: 190132954}
  - component: {fileID: 190132953}
  - component: {fileID: 190132952}
  - component: {fileID: 190132951}
  m_Layer: 5
  m_Name: Canvas
  m_TagString: Untagged
  m_Icon: {fileID: 0}
  m_NavMeshLayer: 0
  m_StaticEditorFlags: 0
  m_IsActive: 1
--- !u!114 &190132951
MonoBehaviour:
  m_ObjectHideFlags: 0
  m_CorrespondingSourceObject: {fileID: 0}
  m_PrefabInstance: {fileID: 0}
  m_PrefabAsset: {fileID: 0}
  m_GameObject: {fileID: 190132950}
  m_Enabled: 1
  m_EditorHideFlags: 0
  m_Script: {fileID: 11500000, guid: dc42784cf147c0c48a680349fa168899, type: 3}
  m_Name: 
  m_EditorClassIdentifier: 
  m_IgnoreReversedGraphics: 1
  m_BlockingObjects: 0
  m_BlockingMask:
    serializedVersion: 2
    m_Bits: 4294967295
--- !u!114 &190132952
MonoBehaviour:
  m_ObjectHideFlags: 0
  m_CorrespondingSourceObject: {fileID: 0}
  m_PrefabInstance: {fileID: 0}
  m_PrefabAsset: {fileID: 0}
  m_GameObject: {fileID: 190132950}
  m_Enabled: 1
  m_EditorHideFlags: 0
  m_Script: {fileID: 11500000, guid: 0cd44c1031e13a943bb63640046fad76, type: 3}
  m_Name: 
  m_EditorClassIdentifier: 
  m_UiScaleMode: 0
  m_ReferencePixelsPerUnit: 100
  m_ScaleFactor: 1
  m_ReferenceResolution: {x: 800, y: 600}
  m_ScreenMatchMode: 0
  m_MatchWidthOrHeight: 0
  m_PhysicalUnit: 3
  m_FallbackScreenDPI: 96
  m_DefaultSpriteDPI: 96
  m_DynamicPixelsPerUnit: 1
--- !u!223 &190132953
Canvas:
  m_ObjectHideFlags: 0
  m_CorrespondingSourceObject: {fileID: 0}
  m_PrefabInstance: {fileID: 0}
  m_PrefabAsset: {fileID: 0}
  m_GameObject: {fileID: 190132950}
  m_Enabled: 1
  serializedVersion: 3
  m_RenderMode: 2
  m_Camera: {fileID: 0}
  m_PlaneDistance: 100
  m_PixelPerfect: 0
  m_ReceivesEvents: 1
  m_OverrideSorting: 0
  m_OverridePixelPerfect: 0
  m_SortingBucketNormalizedSize: 0
  m_AdditionalShaderChannelsFlag: 0
  m_SortingLayerID: 0
  m_SortingOrder: 0
  m_TargetDisplay: 0
--- !u!224 &190132954
RectTransform:
  m_ObjectHideFlags: 0
  m_CorrespondingSourceObject: {fileID: 0}
  m_PrefabInstance: {fileID: 0}
  m_PrefabAsset: {fileID: 0}
  m_GameObject: {fileID: 190132950}
  m_LocalRotation: {x: -0, y: -0.70710576, z: -0, w: 0.70710784}
  m_LocalPosition: {x: 0, y: 0, z: 0}
  m_LocalScale: {x: 1, y: 1, z: 1}
  m_Children:
  - {fileID: 1011440336}
  - {fileID: 1744216427}
  m_Father: {fileID: 0}
  m_RootOrder: 4
  m_LocalEulerAnglesHint: {x: 0, y: -90.00001, z: 0}
  m_AnchorMin: {x: 0, y: 0}
  m_AnchorMax: {x: 0, y: 0}
  m_AnchoredPosition: {x: -1, y: 0.987}
  m_SizeDelta: {x: 8.5, y: 2}
  m_Pivot: {x: 0.5, y: 0.5}
--- !u!1 &282840810
GameObject:
  m_ObjectHideFlags: 0
  m_CorrespondingSourceObject: {fileID: 0}
  m_PrefabInstance: {fileID: 0}
  m_PrefabAsset: {fileID: 0}
  serializedVersion: 6
  m_Component:
  - component: {fileID: 282840814}
  - component: {fileID: 282840813}
  - component: {fileID: 282840811}
  - component: {fileID: 282840812}
  m_Layer: 0
  m_Name: Main Camera
  m_TagString: MainCamera
  m_Icon: {fileID: 0}
  m_NavMeshLayer: 0
  m_StaticEditorFlags: 0
  m_IsActive: 1
--- !u!81 &282840811
AudioListener:
  m_ObjectHideFlags: 0
  m_CorrespondingSourceObject: {fileID: 0}
  m_PrefabInstance: {fileID: 0}
  m_PrefabAsset: {fileID: 0}
  m_GameObject: {fileID: 282840810}
  m_Enabled: 1
--- !u!114 &282840812
MonoBehaviour:
  m_ObjectHideFlags: 0
  m_CorrespondingSourceObject: {fileID: 0}
  m_PrefabInstance: {fileID: 0}
  m_PrefabAsset: {fileID: 0}
  m_GameObject: {fileID: 282840810}
  m_Enabled: 1
  m_EditorHideFlags: 0
  m_Script: {fileID: 11500000, guid: 948f4100a11a5c24981795d21301da5c, type: 3}
  m_Name: 
  m_EditorClassIdentifier: 
--- !u!20 &282840813
Camera:
  m_ObjectHideFlags: 0
  m_CorrespondingSourceObject: {fileID: 0}
  m_PrefabInstance: {fileID: 0}
  m_PrefabAsset: {fileID: 0}
  m_GameObject: {fileID: 282840810}
  m_Enabled: 1
  serializedVersion: 2
  m_ClearFlags: 2
  m_BackGroundColor: {r: 0.50980395, g: 0.27450982, b: 0.19607843, a: 0}
  m_projectionMatrixMode: 1
  m_GateFitMode: 2
  m_FOVAxisMode: 0
  m_SensorSize: {x: 36, y: 24}
  m_LensShift: {x: 0, y: 0}
  m_FocalLength: 50
  m_NormalizedViewPortRect:
    serializedVersion: 2
    x: 0
    y: 0
    width: 1
    height: 1
  near clip plane: 0.3
  far clip plane: 1000
  field of view: 60
  orthographic: 0
  orthographic size: 5
  m_Depth: -1
  m_CullingMask:
    serializedVersion: 2
    m_Bits: 4294967295
  m_RenderingPath: 3
  m_TargetTexture: {fileID: 0}
  m_TargetDisplay: 0
  m_TargetEye: 3
  m_HDR: 1
  m_AllowMSAA: 0
  m_AllowDynamicResolution: 0
  m_ForceIntoRT: 1
  m_OcclusionCulling: 1
  m_StereoConvergence: 10
  m_StereoSeparation: 0.022
--- !u!4 &282840814
Transform:
  m_ObjectHideFlags: 0
  m_CorrespondingSourceObject: {fileID: 0}
  m_PrefabInstance: {fileID: 0}
  m_PrefabAsset: {fileID: 0}
  m_GameObject: {fileID: 282840810}
  m_LocalRotation: {x: 0.12278779, y: -0.6963643, z: 0.12278779, w: 0.6963643}
  m_LocalPosition: {x: 2.8, y: 1.3, z: 0}
  m_LocalScale: {x: 1, y: 1, z: 1}
  m_Children: []
  m_Father: {fileID: 1042475201}
  m_RootOrder: 0
  m_LocalEulerAnglesHint: {x: 20, y: -90, z: 0}
--- !u!1001 &341495714
PrefabInstance:
  m_ObjectHideFlags: 0
  serializedVersion: 2
  m_Modification:
    m_TransformParent: {fileID: 1439803131}
    m_Modifications:
    - target: {fileID: 4723223215228824, guid: 1cc7cbbec1f220841a9ed6c3046dddfb, type: 3}
      propertyPath: m_RootOrder
      value: 11
      objectReference: {fileID: 0}
    - target: {fileID: 4723223215228824, guid: 1cc7cbbec1f220841a9ed6c3046dddfb, type: 3}
      propertyPath: m_LocalPosition.x
      value: 1.3040004
      objectReference: {fileID: 0}
    - target: {fileID: 4723223215228824, guid: 1cc7cbbec1f220841a9ed6c3046dddfb, type: 3}
      propertyPath: m_LocalPosition.y
      value: 0.129
      objectReference: {fileID: 0}
    - target: {fileID: 4723223215228824, guid: 1cc7cbbec1f220841a9ed6c3046dddfb, type: 3}
      propertyPath: m_LocalPosition.z
      value: -0.614
      objectReference: {fileID: 0}
    - target: {fileID: 4723223215228824, guid: 1cc7cbbec1f220841a9ed6c3046dddfb, type: 3}
      propertyPath: m_LocalRotation.w
      value: 0.68301606
      objectReference: {fileID: 0}
    - target: {fileID: 4723223215228824, guid: 1cc7cbbec1f220841a9ed6c3046dddfb, type: 3}
      propertyPath: m_LocalRotation.x
      value: -0.18301158
      objectReference: {fileID: 0}
    - target: {fileID: 4723223215228824, guid: 1cc7cbbec1f220841a9ed6c3046dddfb, type: 3}
      propertyPath: m_LocalRotation.y
      value: -0.68300956
      objectReference: {fileID: 0}
    - target: {fileID: 4723223215228824, guid: 1cc7cbbec1f220841a9ed6c3046dddfb, type: 3}
      propertyPath: m_LocalRotation.z
      value: -0.18301322
      objectReference: {fileID: 0}
    m_RemovedComponents: []
  m_SourcePrefab: {fileID: 100100000, guid: 1cc7cbbec1f220841a9ed6c3046dddfb, type: 3}
--- !u!4 &341495715 stripped
Transform:
  m_CorrespondingSourceObject: {fileID: 4723223215228824, guid: 1cc7cbbec1f220841a9ed6c3046dddfb,
    type: 3}
  m_PrefabInstance: {fileID: 341495714}
  m_PrefabAsset: {fileID: 0}
--- !u!1001 &449779673
PrefabInstance:
  m_ObjectHideFlags: 0
  serializedVersion: 2
  m_Modification:
    m_TransformParent: {fileID: 1439803131}
    m_Modifications:
    - target: {fileID: 4900915520077878, guid: e6002bc2297e85f4d9fc76b8248feb5a, type: 3}
      propertyPath: m_RootOrder
      value: 7
      objectReference: {fileID: 0}
    - target: {fileID: 4900915520077878, guid: e6002bc2297e85f4d9fc76b8248feb5a, type: 3}
      propertyPath: m_LocalPosition.x
      value: 0.712
      objectReference: {fileID: 0}
    - target: {fileID: 4900915520077878, guid: e6002bc2297e85f4d9fc76b8248feb5a, type: 3}
      propertyPath: m_LocalPosition.y
      value: 0.129
      objectReference: {fileID: 0}
    - target: {fileID: 4900915520077878, guid: e6002bc2297e85f4d9fc76b8248feb5a, type: 3}
      propertyPath: m_LocalPosition.z
      value: -0.073
      objectReference: {fileID: 0}
    - target: {fileID: 4900915520077878, guid: e6002bc2297e85f4d9fc76b8248feb5a, type: 3}
      propertyPath: m_LocalRotation.w
      value: -0.6830115
      objectReference: {fileID: 0}
    - target: {fileID: 4900915520077878, guid: e6002bc2297e85f4d9fc76b8248feb5a, type: 3}
      propertyPath: m_LocalRotation.x
      value: -0.18301281
      objectReference: {fileID: 0}
    - target: {fileID: 4900915520077878, guid: e6002bc2297e85f4d9fc76b8248feb5a, type: 3}
      propertyPath: m_LocalRotation.y
      value: -0.68301415
      objectReference: {fileID: 0}
    - target: {fileID: 4900915520077878, guid: e6002bc2297e85f4d9fc76b8248feb5a, type: 3}
      propertyPath: m_LocalRotation.z
      value: 0.1830121
      objectReference: {fileID: 0}
    m_RemovedComponents: []
  m_SourcePrefab: {fileID: 100100000, guid: e6002bc2297e85f4d9fc76b8248feb5a, type: 3}
--- !u!4 &449779674 stripped
Transform:
  m_CorrespondingSourceObject: {fileID: 4900915520077878, guid: e6002bc2297e85f4d9fc76b8248feb5a,
    type: 3}
  m_PrefabInstance: {fileID: 449779673}
  m_PrefabAsset: {fileID: 0}
--- !u!1001 &540958578
PrefabInstance:
  m_ObjectHideFlags: 0
  serializedVersion: 2
  m_Modification:
    m_TransformParent: {fileID: 1439803131}
    m_Modifications:
    - target: {fileID: 4766796992241416, guid: 67d272003e829744b87737100e2371ca, type: 3}
      propertyPath: m_RootOrder
      value: 6
      objectReference: {fileID: 0}
    - target: {fileID: 4766796992241416, guid: 67d272003e829744b87737100e2371ca, type: 3}
      propertyPath: m_LocalPosition.x
      value: 0.712
      objectReference: {fileID: 0}
    - target: {fileID: 4766796992241416, guid: 67d272003e829744b87737100e2371ca, type: 3}
      propertyPath: m_LocalPosition.y
      value: 0.12
      objectReference: {fileID: 0}
    - target: {fileID: 4766796992241416, guid: 67d272003e829744b87737100e2371ca, type: 3}
      propertyPath: m_LocalPosition.z
      value: -0.614
      objectReference: {fileID: 0}
    - target: {fileID: 4766796992241416, guid: 67d272003e829744b87737100e2371ca, type: 3}
      propertyPath: m_LocalRotation.w
      value: 0.6830139
      objectReference: {fileID: 0}
    - target: {fileID: 4766796992241416, guid: 67d272003e829744b87737100e2371ca, type: 3}
      propertyPath: m_LocalRotation.x
      value: 0.18301204
      objectReference: {fileID: 0}
    - target: {fileID: 4766796992241416, guid: 67d272003e829744b87737100e2371ca, type: 3}
      propertyPath: m_LocalRotation.y
      value: 0.6830117
      objectReference: {fileID: 0}
    - target: {fileID: 4766796992241416, guid: 67d272003e829744b87737100e2371ca, type: 3}
      propertyPath: m_LocalRotation.z
      value: -0.18301278
      objectReference: {fileID: 0}
    m_RemovedComponents: []
  m_SourcePrefab: {fileID: 100100000, guid: 67d272003e829744b87737100e2371ca, type: 3}
--- !u!4 &540958579 stripped
Transform:
  m_CorrespondingSourceObject: {fileID: 4766796992241416, guid: 67d272003e829744b87737100e2371ca,
    type: 3}
  m_PrefabInstance: {fileID: 540958578}
  m_PrefabAsset: {fileID: 0}
--- !u!1001 &608344089
PrefabInstance:
  m_ObjectHideFlags: 0
  serializedVersion: 2
  m_Modification:
    m_TransformParent: {fileID: 1439803131}
    m_Modifications:
    - target: {fileID: 4654428850390916, guid: adc1f0e5c2a025b488cad3fb21d4f3b6, type: 3}
      propertyPath: m_RootOrder
      value: 0
      objectReference: {fileID: 0}
    - target: {fileID: 4654428850390916, guid: adc1f0e5c2a025b488cad3fb21d4f3b6, type: 3}
      propertyPath: m_LocalPosition.x
      value: 0.037
      objectReference: {fileID: 0}
    - target: {fileID: 4654428850390916, guid: adc1f0e5c2a025b488cad3fb21d4f3b6, type: 3}
      propertyPath: m_LocalPosition.y
      value: 0.12
      objectReference: {fileID: 0}
    - target: {fileID: 4654428850390916, guid: adc1f0e5c2a025b488cad3fb21d4f3b6, type: 3}
      propertyPath: m_LocalPosition.z
      value: -1.089
      objectReference: {fileID: 0}
    - target: {fileID: 4654428850390916, guid: adc1f0e5c2a025b488cad3fb21d4f3b6, type: 3}
      propertyPath: m_LocalRotation.w
      value: 0.6830139
      objectReference: {fileID: 0}
    - target: {fileID: 4654428850390916, guid: adc1f0e5c2a025b488cad3fb21d4f3b6, type: 3}
      propertyPath: m_LocalRotation.x
      value: 0.18301204
      objectReference: {fileID: 0}
    - target: {fileID: 4654428850390916, guid: adc1f0e5c2a025b488cad3fb21d4f3b6, type: 3}
      propertyPath: m_LocalRotation.y
      value: 0.6830117
      objectReference: {fileID: 0}
    - target: {fileID: 4654428850390916, guid: adc1f0e5c2a025b488cad3fb21d4f3b6, type: 3}
      propertyPath: m_LocalRotation.z
      value: -0.18301271
      objectReference: {fileID: 0}
    m_RemovedComponents: []
  m_SourcePrefab: {fileID: 100100000, guid: adc1f0e5c2a025b488cad3fb21d4f3b6, type: 3}
--- !u!4 &608344090 stripped
Transform:
  m_CorrespondingSourceObject: {fileID: 4654428850390916, guid: adc1f0e5c2a025b488cad3fb21d4f3b6,
    type: 3}
  m_PrefabInstance: {fileID: 608344089}
  m_PrefabAsset: {fileID: 0}
--- !u!1001 &1008519490
PrefabInstance:
  m_ObjectHideFlags: 0
  serializedVersion: 2
  m_Modification:
    m_TransformParent: {fileID: 1439803131}
    m_Modifications:
    - target: {fileID: 4191012536129904, guid: f16e0d712129f7b4abba89bfd58e985b, type: 3}
      propertyPath: m_RootOrder
      value: 4
      objectReference: {fileID: 0}
    - target: {fileID: 4191012536129904, guid: f16e0d712129f7b4abba89bfd58e985b, type: 3}
      propertyPath: m_LocalPosition.x
      value: 0.059000388
      objectReference: {fileID: 0}
    - target: {fileID: 4191012536129904, guid: f16e0d712129f7b4abba89bfd58e985b, type: 3}
      propertyPath: m_LocalPosition.y
      value: 0.15100001
      objectReference: {fileID: 0}
    - target: {fileID: 4191012536129904, guid: f16e0d712129f7b4abba89bfd58e985b, type: 3}
      propertyPath: m_LocalPosition.z
      value: 1.071
      objectReference: {fileID: 0}
    - target: {fileID: 4191012536129904, guid: f16e0d712129f7b4abba89bfd58e985b, type: 3}
      propertyPath: m_LocalRotation.w
      value: 0.6830136
      objectReference: {fileID: 0}
    - target: {fileID: 4191012536129904, guid: f16e0d712129f7b4abba89bfd58e985b, type: 3}
      propertyPath: m_LocalRotation.x
      value: 0.18301146
      objectReference: {fileID: 0}
    - target: {fileID: 4191012536129904, guid: f16e0d712129f7b4abba89bfd58e985b, type: 3}
      propertyPath: m_LocalRotation.y
      value: 0.68301207
      objectReference: {fileID: 0}
    - target: {fileID: 4191012536129904, guid: f16e0d712129f7b4abba89bfd58e985b, type: 3}
      propertyPath: m_LocalRotation.z
      value: -0.18301295
      objectReference: {fileID: 0}
    m_RemovedComponents: []
  m_SourcePrefab: {fileID: 100100000, guid: f16e0d712129f7b4abba89bfd58e985b, type: 3}
--- !u!4 &1008519491 stripped
Transform:
  m_CorrespondingSourceObject: {fileID: 4191012536129904, guid: f16e0d712129f7b4abba89bfd58e985b,
    type: 3}
  m_PrefabInstance: {fileID: 1008519490}
  m_PrefabAsset: {fileID: 0}
--- !u!1 &1011440335
GameObject:
  m_ObjectHideFlags: 0
  m_CorrespondingSourceObject: {fileID: 0}
  m_PrefabInstance: {fileID: 0}
  m_PrefabAsset: {fileID: 0}
  serializedVersion: 6
  m_Component:
  - component: {fileID: 1011440336}
  - component: {fileID: 1011440338}
  - component: {fileID: 1011440337}
  - component: {fileID: 1011440339}
  m_Layer: 5
  m_Name: Title
  m_TagString: Untagged
  m_Icon: {fileID: 0}
  m_NavMeshLayer: 0
  m_StaticEditorFlags: 0
  m_IsActive: 1
--- !u!224 &1011440336
RectTransform:
  m_ObjectHideFlags: 0
  m_CorrespondingSourceObject: {fileID: 0}
  m_PrefabInstance: {fileID: 0}
  m_PrefabAsset: {fileID: 0}
  m_GameObject: {fileID: 1011440335}
  m_LocalRotation: {x: -0, y: -0, z: -0, w: 1}
  m_LocalPosition: {x: 0, y: 0, z: 0}
  m_LocalScale: {x: 0.00196, y: 0.00196, z: 0.00196}
  m_Children: []
  m_Father: {fileID: 190132954}
  m_RootOrder: 0
  m_LocalEulerAnglesHint: {x: 0, y: 0, z: 0}
  m_AnchorMin: {x: 0, y: 0}
  m_AnchorMax: {x: 1, y: 1}
  m_AnchoredPosition: {x: 0, y: 0.284}
  m_SizeDelta: {x: 0, y: 0}
  m_Pivot: {x: 0.5, y: 0.5}
--- !u!114 &1011440337
MonoBehaviour:
  m_ObjectHideFlags: 0
  m_CorrespondingSourceObject: {fileID: 0}
  m_PrefabInstance: {fileID: 0}
  m_PrefabAsset: {fileID: 0}
  m_GameObject: {fileID: 1011440335}
  m_Enabled: 1
  m_EditorHideFlags: 0
  m_Script: {fileID: 11500000, guid: 5f7201a12d95ffc409449d95f23cf332, type: 3}
  m_Name: 
  m_EditorClassIdentifier: 
  m_Material: {fileID: 0}
  m_Color: {r: 0.764151, g: 0.59740436, b: 0.28475437, a: 1}
  m_RaycastTarget: 1
  m_Maskable: 1
  m_OnCullStateChanged:
    m_PersistentCalls:
      m_Calls: []
  m_FontData:
    m_Font: {fileID: 10102, guid: 0000000000000000e000000000000000, type: 0}
    m_FontSize: 150
    m_FontStyle: 1
    m_BestFit: 0
    m_MinSize: 1
    m_MaxSize: 150
    m_Alignment: 4
    m_AlignByGeometry: 0
    m_RichText: 1
    m_HorizontalOverflow: 1
    m_VerticalOverflow: 1
    m_LineSpacing: 1
  m_Text: RPG Food & Drinks Pack
--- !u!222 &1011440338
CanvasRenderer:
  m_ObjectHideFlags: 0
  m_CorrespondingSourceObject: {fileID: 0}
  m_PrefabInstance: {fileID: 0}
  m_PrefabAsset: {fileID: 0}
  m_GameObject: {fileID: 1011440335}
  m_CullTransparentMesh: 0
--- !u!114 &1011440339
MonoBehaviour:
  m_ObjectHideFlags: 0
  m_CorrespondingSourceObject: {fileID: 0}
  m_PrefabInstance: {fileID: 0}
  m_PrefabAsset: {fileID: 0}
  m_GameObject: {fileID: 1011440335}
  m_Enabled: 1
  m_EditorHideFlags: 0
  m_Script: {fileID: 11500000, guid: cfabb0440166ab443bba8876756fdfa9, type: 3}
  m_Name: 
  m_EditorClassIdentifier: 
  m_EffectColor: {r: 0, g: 0, b: 0, a: 0.6862745}
  m_EffectDistance: {x: 5, y: -5}
  m_UseGraphicAlpha: 1
--- !u!1 &1042475200
GameObject:
  m_ObjectHideFlags: 0
  m_CorrespondingSourceObject: {fileID: 0}
  m_PrefabInstance: {fileID: 0}
  m_PrefabAsset: {fileID: 0}
  serializedVersion: 6
  m_Component:
  - component: {fileID: 1042475201}
  m_Layer: 0
  m_Name: Other
  m_TagString: Untagged
  m_Icon: {fileID: 0}
  m_NavMeshLayer: 0
  m_StaticEditorFlags: 0
  m_IsActive: 1
--- !u!4 &1042475201
Transform:
  m_ObjectHideFlags: 0
  m_CorrespondingSourceObject: {fileID: 0}
  m_PrefabInstance: {fileID: 0}
  m_PrefabAsset: {fileID: 0}
  m_GameObject: {fileID: 1042475200}
  m_LocalRotation: {x: 0, y: 0, z: 0, w: 1}
  m_LocalPosition: {x: 0, y: 0, z: 0}
  m_LocalScale: {x: 1, y: 1, z: 1}
  m_Children:
  - {fileID: 282840814}
  - {fileID: 170076735}
  - {fileID: 1444446163}
  m_Father: {fileID: 0}
  m_RootOrder: 3
  m_LocalEulerAnglesHint: {x: 0, y: 0, z: 0}
--- !u!1 &1115339829
GameObject:
  m_ObjectHideFlags: 0
  m_CorrespondingSourceObject: {fileID: 0}
  m_PrefabInstance: {fileID: 0}
  m_PrefabAsset: {fileID: 0}
  serializedVersion: 6
  m_Component:
  - component: {fileID: 1115339832}
  - component: {fileID: 1115339830}
  m_Layer: 8
  m_Name: Post-process Volume
  m_TagString: Untagged
  m_Icon: {fileID: 0}
  m_NavMeshLayer: 0
  m_StaticEditorFlags: 0
  m_IsActive: 1
--- !u!114 &1115339830
MonoBehaviour:
  m_ObjectHideFlags: 0
  m_CorrespondingSourceObject: {fileID: 0}
  m_PrefabInstance: {fileID: 0}
  m_PrefabAsset: {fileID: 0}
  m_GameObject: {fileID: 1115339829}
  m_Enabled: 1
  m_EditorHideFlags: 0
  m_Script: {fileID: 11500000, guid: 8b9a305e18de0c04dbd257a21cd47087, type: 3}
  m_Name: 
  m_EditorClassIdentifier: 
--- !u!4 &1115339832
Transform:
  m_ObjectHideFlags: 0
  m_CorrespondingSourceObject: {fileID: 0}
  m_PrefabInstance: {fileID: 0}
  m_PrefabAsset: {fileID: 0}
  m_GameObject: {fileID: 1115339829}
  m_LocalRotation: {x: 0, y: 0, z: 0, w: 1}
  m_LocalPosition: {x: 0, y: 0, z: 0}
  m_LocalScale: {x: 1, y: 1, z: 1}
  m_Children: []
  m_Father: {fileID: 0}
  m_RootOrder: 2
  m_LocalEulerAnglesHint: {x: 0, y: 0, z: 0}
--- !u!1 &1371247742
GameObject:
  m_ObjectHideFlags: 0
  m_CorrespondingSourceObject: {fileID: 0}
  m_PrefabInstance: {fileID: 0}
  m_PrefabAsset: {fileID: 0}
  serializedVersion: 6
  m_Component:
  - component: {fileID: 1371247745}
  - component: {fileID: 1371247744}
  - component: {fileID: 1371247743}
  m_Layer: 0
  m_Name: EventSystem
  m_TagString: Untagged
  m_Icon: {fileID: 0}
  m_NavMeshLayer: 0
  m_StaticEditorFlags: 0
  m_IsActive: 1
--- !u!114 &1371247743
MonoBehaviour:
  m_ObjectHideFlags: 0
  m_CorrespondingSourceObject: {fileID: 0}
  m_PrefabInstance: {fileID: 0}
  m_PrefabAsset: {fileID: 0}
  m_GameObject: {fileID: 1371247742}
  m_Enabled: 1
  m_EditorHideFlags: 0
  m_Script: {fileID: 11500000, guid: 4f231c4fb786f3946a6b90b886c48677, type: 3}
  m_Name: 
  m_EditorClassIdentifier: 
  m_HorizontalAxis: Horizontal
  m_VerticalAxis: Vertical
  m_SubmitButton: Submit
  m_CancelButton: Cancel
  m_InputActionsPerSecond: 10
  m_RepeatDelay: 0.5
  m_ForceModuleActive: 0
--- !u!114 &1371247744
MonoBehaviour:
  m_ObjectHideFlags: 0
  m_CorrespondingSourceObject: {fileID: 0}
  m_PrefabInstance: {fileID: 0}
  m_PrefabAsset: {fileID: 0}
  m_GameObject: {fileID: 1371247742}
  m_Enabled: 1
  m_EditorHideFlags: 0
  m_Script: {fileID: 11500000, guid: 76c392e42b5098c458856cdf6ecaaaa1, type: 3}
  m_Name: 
  m_EditorClassIdentifier: 
  m_FirstSelected: {fileID: 0}
  m_sendNavigationEvents: 1
  m_DragThreshold: 10
--- !u!4 &1371247745
Transform:
  m_ObjectHideFlags: 0
  m_CorrespondingSourceObject: {fileID: 0}
  m_PrefabInstance: {fileID: 0}
  m_PrefabAsset: {fileID: 0}
  m_GameObject: {fileID: 1371247742}
  m_LocalRotation: {x: 0, y: 0, z: 0, w: 1}
  m_LocalPosition: {x: 0, y: 0, z: 0}
  m_LocalScale: {x: 1, y: 1, z: 1}
  m_Children: []
  m_Father: {fileID: 0}
  m_RootOrder: 0
  m_LocalEulerAnglesHint: {x: 0, y: 0, z: 0}
--- !u!1 &1439803130
GameObject:
  m_ObjectHideFlags: 0
  m_CorrespondingSourceObject: {fileID: 0}
  m_PrefabInstance: {fileID: 0}
  m_PrefabAsset: {fileID: 0}
  serializedVersion: 6
  m_Component:
  - component: {fileID: 1439803131}
  - component: {fileID: 1439803132}
  m_Layer: 0
  m_Name: Objects
  m_TagString: Untagged
  m_Icon: {fileID: 0}
  m_NavMeshLayer: 0
  m_StaticEditorFlags: 0
  m_IsActive: 1
--- !u!4 &1439803131
Transform:
  m_ObjectHideFlags: 0
  m_CorrespondingSourceObject: {fileID: 0}
  m_PrefabInstance: {fileID: 0}
  m_PrefabAsset: {fileID: 0}
  m_GameObject: {fileID: 1439803130}
  m_LocalRotation: {x: 0, y: 0, z: 0, w: 1}
  m_LocalPosition: {x: 0, y: 0, z: 0}
  m_LocalScale: {x: 1, y: 1, z: 1}
  m_Children:
  - {fileID: 608344090}
  - {fileID: 1952420729}
  - {fileID: 1453800630}
  - {fileID: 1940730415}
  - {fileID: 1008519491}
  - {fileID: 1489375138}
  - {fileID: 540958579}
  - {fileID: 449779674}
  - {fileID: 10582695}
  - {fileID: 1996910499}
  - {fileID: 1764732035}
  - {fileID: 341495715}
  - {fileID: 4554513602095387}
  - {fileID: 4271801174439172}
  - {fileID: 4004587744756505}
  m_Father: {fileID: 0}
  m_RootOrder: 5
  m_LocalEulerAnglesHint: {x: 0, y: 0, z: 0}
--- !u!114 &1439803132
MonoBehaviour:
  m_ObjectHideFlags: 0
  m_CorrespondingSourceObject: {fileID: 0}
  m_PrefabInstance: {fileID: 0}
  m_PrefabAsset: {fileID: 0}
  m_GameObject: {fileID: 1439803130}
  m_Enabled: 0
  m_EditorHideFlags: 0
  m_Script: {fileID: 11500000, guid: d04f90983040f0846a0e9ec03aff2b5f, type: 3}
  m_Name: 
  m_EditorClassIdentifier: 
--- !u!1 &1444446159
GameObject:
  m_ObjectHideFlags: 0
  m_CorrespondingSourceObject: {fileID: 0}
  m_PrefabInstance: {fileID: 0}
  m_PrefabAsset: {fileID: 0}
  serializedVersion: 6
  m_Component:
  - component: {fileID: 1444446163}
  - component: {fileID: 1444446162}
  - component: {fileID: 1444446161}
  - component: {fileID: 1444446160}
  m_Layer: 0
  m_Name: Ground
  m_TagString: Untagged
  m_Icon: {fileID: 0}
  m_NavMeshLayer: 0
  m_StaticEditorFlags: 0
  m_IsActive: 1
--- !u!65 &1444446160
BoxCollider:
  m_ObjectHideFlags: 0
  m_CorrespondingSourceObject: {fileID: 0}
  m_PrefabInstance: {fileID: 0}
  m_PrefabAsset: {fileID: 0}
  m_GameObject: {fileID: 1444446159}
  m_Material: {fileID: 0}
  m_IsTrigger: 0
  m_Enabled: 1
  serializedVersion: 2
  m_Size: {x: 10, y: 2.220446e-16, z: 10}
  m_Center: {x: 0, y: 0, z: 0}
--- !u!23 &1444446161
MeshRenderer:
  m_ObjectHideFlags: 0
  m_CorrespondingSourceObject: {fileID: 0}
  m_PrefabInstance: {fileID: 0}
  m_PrefabAsset: {fileID: 0}
  m_GameObject: {fileID: 1444446159}
  m_Enabled: 1
  m_CastShadows: 1
  m_ReceiveShadows: 1
  m_DynamicOccludee: 1
  m_MotionVectors: 1
  m_LightProbeUsage: 1
  m_ReflectionProbeUsage: 1
  m_RayTracingMode: 2
  m_RenderingLayerMask: 4294967295
  m_RendererPriority: 0
  m_Materials:
  - {fileID: 2100000, guid: df6e11e3d51fbf54fa9723bacc1fb08a, type: 2}
  m_StaticBatchInfo:
    firstSubMesh: 0
    subMeshCount: 0
  m_StaticBatchRoot: {fileID: 0}
  m_ProbeAnchor: {fileID: 0}
  m_LightProbeVolumeOverride: {fileID: 0}
  m_ScaleInLightmap: 1
  m_ReceiveGI: 1
  m_PreserveUVs: 0
  m_IgnoreNormalsForChartDetection: 0
  m_ImportantGI: 0
  m_StitchLightmapSeams: 0
  m_SelectedEditorRenderState: 3
  m_MinimumChartSize: 4
  m_AutoUVMaxDistance: 0.5
  m_AutoUVMaxAngle: 89
  m_LightmapParameters: {fileID: 0}
  m_SortingLayerID: 0
  m_SortingLayer: 0
  m_SortingOrder: 0
--- !u!33 &1444446162
MeshFilter:
  m_ObjectHideFlags: 0
  m_CorrespondingSourceObject: {fileID: 0}
  m_PrefabInstance: {fileID: 0}
  m_PrefabAsset: {fileID: 0}
  m_GameObject: {fileID: 1444446159}
  m_Mesh: {fileID: 10209, guid: 0000000000000000e000000000000000, type: 0}
--- !u!4 &1444446163
Transform:
  m_ObjectHideFlags: 0
  m_CorrespondingSourceObject: {fileID: 0}
  m_PrefabInstance: {fileID: 0}
  m_PrefabAsset: {fileID: 0}
  m_GameObject: {fileID: 1444446159}
  m_LocalRotation: {x: -0, y: -0, z: -0, w: 1}
  m_LocalPosition: {x: 0.4948, y: 0, z: 0}
  m_LocalScale: {x: 0.21656331, y: 1, z: 0.28910512}
  m_Children: []
  m_Father: {fileID: 1042475201}
  m_RootOrder: 2
  m_LocalEulerAnglesHint: {x: 0, y: 0, z: 0}
--- !u!1001 &1453800629
PrefabInstance:
  m_ObjectHideFlags: 0
  serializedVersion: 2
  m_Modification:
    m_TransformParent: {fileID: 1439803131}
    m_Modifications:
    - target: {fileID: 4001665144161304, guid: 111549fa332d30b4d93ee7a79fca0218, type: 3}
      propertyPath: m_RootOrder
      value: 2
      objectReference: {fileID: 0}
    - target: {fileID: 4001665144161304, guid: 111549fa332d30b4d93ee7a79fca0218, type: 3}
      propertyPath: m_LocalPosition.x
      value: 0.03699997
      objectReference: {fileID: 0}
    - target: {fileID: 4001665144161304, guid: 111549fa332d30b4d93ee7a79fca0218, type: 3}
      propertyPath: m_LocalPosition.y
      value: 0.167
      objectReference: {fileID: 0}
    - target: {fileID: 4001665144161304, guid: 111549fa332d30b4d93ee7a79fca0218, type: 3}
      propertyPath: m_LocalPosition.z
      value: -0.073
      objectReference: {fileID: 0}
    - target: {fileID: 4001665144161304, guid: 111549fa332d30b4d93ee7a79fca0218, type: 3}
      propertyPath: m_LocalRotation.w
      value: 0.68301404
      objectReference: {fileID: 0}
    - target: {fileID: 4001665144161304, guid: 111549fa332d30b4d93ee7a79fca0218, type: 3}
      propertyPath: m_LocalRotation.x
      value: 0.18301202
      objectReference: {fileID: 0}
    - target: {fileID: 4001665144161304, guid: 111549fa332d30b4d93ee7a79fca0218, type: 3}
      propertyPath: m_LocalRotation.y
      value: 0.68301153
      objectReference: {fileID: 0}
    - target: {fileID: 4001665144161304, guid: 111549fa332d30b4d93ee7a79fca0218, type: 3}
      propertyPath: m_LocalRotation.z
      value: -0.18301275
      objectReference: {fileID: 0}
    m_RemovedComponents: []
  m_SourcePrefab: {fileID: 100100000, guid: 111549fa332d30b4d93ee7a79fca0218, type: 3}
--- !u!4 &1453800630 stripped
Transform:
  m_CorrespondingSourceObject: {fileID: 4001665144161304, guid: 111549fa332d30b4d93ee7a79fca0218,
    type: 3}
  m_PrefabInstance: {fileID: 1453800629}
  m_PrefabAsset: {fileID: 0}
--- !u!1001 &1489375137
PrefabInstance:
  m_ObjectHideFlags: 0
  serializedVersion: 2
  m_Modification:
    m_TransformParent: {fileID: 1439803131}
    m_Modifications:
    - target: {fileID: 4475904705379548, guid: 3c4c5d66cf736c149bcf5c93ea5603fa, type: 3}
      propertyPath: m_RootOrder
      value: 5
      objectReference: {fileID: 0}
    - target: {fileID: 4475904705379548, guid: 3c4c5d66cf736c149bcf5c93ea5603fa, type: 3}
      propertyPath: m_LocalPosition.x
      value: 0.712
      objectReference: {fileID: 0}
    - target: {fileID: 4475904705379548, guid: 3c4c5d66cf736c149bcf5c93ea5603fa, type: 3}
      propertyPath: m_LocalPosition.y
      value: 0.126
      objectReference: {fileID: 0}
    - target: {fileID: 4475904705379548, guid: 3c4c5d66cf736c149bcf5c93ea5603fa, type: 3}
      propertyPath: m_LocalPosition.z
      value: -1.089
      objectReference: {fileID: 0}
    - target: {fileID: 4475904705379548, guid: 3c4c5d66cf736c149bcf5c93ea5603fa, type: 3}
      propertyPath: m_LocalRotation.w
      value: 0.00000033717532
      objectReference: {fileID: 0}
    - target: {fileID: 4475904705379548, guid: 3c4c5d66cf736c149bcf5c93ea5603fa, type: 3}
      propertyPath: m_LocalRotation.x
      value: -0.25881857
      objectReference: {fileID: 0}
    - target: {fileID: 4475904705379548, guid: 3c4c5d66cf736c149bcf5c93ea5603fa, type: 3}
      propertyPath: m_LocalRotation.y
      value: -0.965926
      objectReference: {fileID: 0}
    - target: {fileID: 4475904705379548, guid: 3c4c5d66cf736c149bcf5c93ea5603fa, type: 3}
      propertyPath: m_LocalRotation.z
      value: -0.0000003371743
      objectReference: {fileID: 0}
    m_RemovedComponents: []
  m_SourcePrefab: {fileID: 100100000, guid: 3c4c5d66cf736c149bcf5c93ea5603fa, type: 3}
--- !u!4 &1489375138 stripped
Transform:
  m_CorrespondingSourceObject: {fileID: 4475904705379548, guid: 3c4c5d66cf736c149bcf5c93ea5603fa,
    type: 3}
  m_PrefabInstance: {fileID: 1489375137}
  m_PrefabAsset: {fileID: 0}
--- !u!1001 &1735687459
PrefabInstance:
  m_ObjectHideFlags: 0
  serializedVersion: 2
  m_Modification:
    m_TransformParent: {fileID: 0}
    m_Modifications:
    - target: {fileID: 4036197482987833512, guid: 469205ed190249740833d502e6da1028,
        type: 3}
      propertyPath: m_RootOrder
      value: 1
      objectReference: {fileID: 0}
    - target: {fileID: 4036197482987833512, guid: 469205ed190249740833d502e6da1028,
        type: 3}
      propertyPath: m_LocalPosition.x
      value: 0.8490374
      objectReference: {fileID: 0}
    - target: {fileID: 4036197482987833512, guid: 469205ed190249740833d502e6da1028,
        type: 3}
      propertyPath: m_LocalPosition.y
      value: 0.28968012
      objectReference: {fileID: 0}
    - target: {fileID: 4036197482987833512, guid: 469205ed190249740833d502e6da1028,
        type: 3}
      propertyPath: m_LocalPosition.z
      value: 0.90925133
      objectReference: {fileID: 0}
    - target: {fileID: 4036197482987833512, guid: 469205ed190249740833d502e6da1028,
        type: 3}
      propertyPath: m_LocalRotation.w
      value: 1
      objectReference: {fileID: 0}
    - target: {fileID: 4036197482987833512, guid: 469205ed190249740833d502e6da1028,
        type: 3}
      propertyPath: m_LocalRotation.x
      value: 0
      objectReference: {fileID: 0}
    - target: {fileID: 4036197482987833512, guid: 469205ed190249740833d502e6da1028,
        type: 3}
      propertyPath: m_LocalRotation.y
      value: 0
      objectReference: {fileID: 0}
    - target: {fileID: 4036197482987833512, guid: 469205ed190249740833d502e6da1028,
        type: 3}
      propertyPath: m_LocalRotation.z
      value: 0
      objectReference: {fileID: 0}
    - target: {fileID: 4036197482987833512, guid: 469205ed190249740833d502e6da1028,
        type: 3}
      propertyPath: m_LocalEulerAnglesHint.x
      value: 0
      objectReference: {fileID: 0}
    - target: {fileID: 4036197482987833512, guid: 469205ed190249740833d502e6da1028,
        type: 3}
      propertyPath: m_LocalEulerAnglesHint.y
      value: 0
      objectReference: {fileID: 0}
    - target: {fileID: 4036197482987833512, guid: 469205ed190249740833d502e6da1028,
        type: 3}
      propertyPath: m_LocalEulerAnglesHint.z
      value: 0
      objectReference: {fileID: 0}
    - target: {fileID: 4036197482987833513, guid: 469205ed190249740833d502e6da1028,
        type: 3}
      propertyPath: m_Name
      value: Carrion
      objectReference: {fileID: 0}
    - target: {fileID: 4036197482987833527, guid: 469205ed190249740833d502e6da1028,
        type: 3}
      propertyPath: m_IsTrigger
      value: 1
      objectReference: {fileID: 0}
    m_RemovedComponents: []
  m_SourcePrefab: {fileID: 100100000, guid: 469205ed190249740833d502e6da1028, type: 3}
--- !u!1 &1744216426
GameObject:
  m_ObjectHideFlags: 0
  m_CorrespondingSourceObject: {fileID: 0}
  m_PrefabInstance: {fileID: 0}
  m_PrefabAsset: {fileID: 0}
  serializedVersion: 6
  m_Component:
  - component: {fileID: 1744216427}
  - component: {fileID: 1744216430}
  - component: {fileID: 1744216429}
  - component: {fileID: 1744216428}
  m_Layer: 5
  m_Name: Description
  m_TagString: Untagged
  m_Icon: {fileID: 0}
  m_NavMeshLayer: 0
  m_StaticEditorFlags: 0
  m_IsActive: 1
--- !u!224 &1744216427
RectTransform:
  m_ObjectHideFlags: 0
  m_CorrespondingSourceObject: {fileID: 0}
  m_PrefabInstance: {fileID: 0}
  m_PrefabAsset: {fileID: 0}
  m_GameObject: {fileID: 1744216426}
  m_LocalRotation: {x: -0, y: -0, z: -0, w: 1}
  m_LocalPosition: {x: 0, y: 0, z: 0}
  m_LocalScale: {x: 0.0016140544, y: 0.0016140544, z: 0.0016140544}
  m_Children: []
  m_Father: {fileID: 190132954}
  m_RootOrder: 1
  m_LocalEulerAnglesHint: {x: 0, y: 0, z: 0}
  m_AnchorMin: {x: 0, y: 0}
  m_AnchorMax: {x: 1, y: 1}
  m_AnchoredPosition: {x: 0, y: -0.204}
  m_SizeDelta: {x: 0, y: 0}
  m_Pivot: {x: 0.5, y: 0.5}
--- !u!114 &1744216428
MonoBehaviour:
  m_ObjectHideFlags: 0
  m_CorrespondingSourceObject: {fileID: 0}
  m_PrefabInstance: {fileID: 0}
  m_PrefabAsset: {fileID: 0}
  m_GameObject: {fileID: 1744216426}
  m_Enabled: 1
  m_EditorHideFlags: 0
  m_Script: {fileID: 11500000, guid: cfabb0440166ab443bba8876756fdfa9, type: 3}
  m_Name: 
  m_EditorClassIdentifier: 
  m_EffectColor: {r: 0, g: 0, b: 0, a: 0.6862745}
  m_EffectDistance: {x: 7, y: -7}
  m_UseGraphicAlpha: 1
--- !u!114 &1744216429
MonoBehaviour:
  m_ObjectHideFlags: 0
  m_CorrespondingSourceObject: {fileID: 0}
  m_PrefabInstance: {fileID: 0}
  m_PrefabAsset: {fileID: 0}
  m_GameObject: {fileID: 1744216426}
  m_Enabled: 1
  m_EditorHideFlags: 0
  m_Script: {fileID: 11500000, guid: 5f7201a12d95ffc409449d95f23cf332, type: 3}
  m_Name: 
  m_EditorClassIdentifier: 
  m_Material: {fileID: 0}
  m_Color: {r: 0.8962264, g: 0.75234365, b: 0.48616055, a: 1}
  m_RaycastTarget: 1
  m_Maskable: 1
  m_OnCullStateChanged:
    m_PersistentCalls:
      m_Calls: []
  m_FontData:
    m_Font: {fileID: 10102, guid: 0000000000000000e000000000000000, type: 0}
    m_FontSize: 150
    m_FontStyle: 1
    m_BestFit: 0
    m_MinSize: 1
    m_MaxSize: 150
    m_Alignment: 4
    m_AlignByGeometry: 0
    m_RichText: 1
    m_HorizontalOverflow: 1
    m_VerticalOverflow: 1
    m_LineSpacing: 1
  m_Text: 15 models with 4 stages
--- !u!222 &1744216430
CanvasRenderer:
  m_ObjectHideFlags: 0
  m_CorrespondingSourceObject: {fileID: 0}
  m_PrefabInstance: {fileID: 0}
  m_PrefabAsset: {fileID: 0}
  m_GameObject: {fileID: 1744216426}
  m_CullTransparentMesh: 0
--- !u!1001 &1764732034
PrefabInstance:
  m_ObjectHideFlags: 0
  serializedVersion: 2
  m_Modification:
    m_TransformParent: {fileID: 1439803131}
    m_Modifications:
    - target: {fileID: 4122504326096992, guid: fcb2c2b33094cf54591f330bc73def25, type: 3}
      propertyPath: m_RootOrder
      value: 10
      objectReference: {fileID: 0}
    - target: {fileID: 4122504326096992, guid: fcb2c2b33094cf54591f330bc73def25, type: 3}
      propertyPath: m_LocalPosition.x
      value: 1.304
      objectReference: {fileID: 0}
    - target: {fileID: 4122504326096992, guid: fcb2c2b33094cf54591f330bc73def25, type: 3}
      propertyPath: m_LocalPosition.y
      value: 0.117
      objectReference: {fileID: 0}
    - target: {fileID: 4122504326096992, guid: fcb2c2b33094cf54591f330bc73def25, type: 3}
      propertyPath: m_LocalPosition.z
      value: -1.089
      objectReference: {fileID: 0}
    - target: {fileID: 4122504326096992, guid: fcb2c2b33094cf54591f330bc73def25, type: 3}
      propertyPath: m_LocalRotation.w
      value: 0.9659259
      objectReference: {fileID: 0}
    - target: {fileID: 4122504326096992, guid: fcb2c2b33094cf54591f330bc73def25, type: 3}
      propertyPath: m_LocalRotation.x
      value: -0
      objectReference: {fileID: 0}
    - target: {fileID: 4122504326096992, guid: fcb2c2b33094cf54591f330bc73def25, type: 3}
      propertyPath: m_LocalRotation.y
      value: -0
      objectReference: {fileID: 0}
    - target: {fileID: 4122504326096992, guid: fcb2c2b33094cf54591f330bc73def25, type: 3}
      propertyPath: m_LocalRotation.z
      value: -0.25881892
      objectReference: {fileID: 0}
    m_RemovedComponents: []
  m_SourcePrefab: {fileID: 100100000, guid: fcb2c2b33094cf54591f330bc73def25, type: 3}
--- !u!4 &1764732035 stripped
Transform:
  m_CorrespondingSourceObject: {fileID: 4122504326096992, guid: fcb2c2b33094cf54591f330bc73def25,
    type: 3}
  m_PrefabInstance: {fileID: 1764732034}
  m_PrefabAsset: {fileID: 0}
--- !u!1001 &1940730414
PrefabInstance:
  m_ObjectHideFlags: 0
  serializedVersion: 2
  m_Modification:
    m_TransformParent: {fileID: 1439803131}
    m_Modifications:
    - target: {fileID: 4016727387908236, guid: bf1067ac4cce904429196bd5902ef4c2, type: 3}
      propertyPath: m_RootOrder
      value: 3
      objectReference: {fileID: 0}
    - target: {fileID: 4016727387908236, guid: bf1067ac4cce904429196bd5902ef4c2, type: 3}
      propertyPath: m_LocalPosition.x
      value: 0.058999926
      objectReference: {fileID: 0}
    - target: {fileID: 4016727387908236, guid: bf1067ac4cce904429196bd5902ef4c2, type: 3}
      propertyPath: m_LocalPosition.y
      value: 0.151
      objectReference: {fileID: 0}
    - target: {fileID: 4016727387908236, guid: bf1067ac4cce904429196bd5902ef4c2, type: 3}
      propertyPath: m_LocalPosition.z
      value: 0.497
      objectReference: {fileID: 0}
    - target: {fileID: 4016727387908236, guid: bf1067ac4cce904429196bd5902ef4c2, type: 3}
      propertyPath: m_LocalRotation.w
      value: 0.6830136
      objectReference: {fileID: 0}
    - target: {fileID: 4016727387908236, guid: bf1067ac4cce904429196bd5902ef4c2, type: 3}
      propertyPath: m_LocalRotation.x
      value: 0.18301146
      objectReference: {fileID: 0}
    - target: {fileID: 4016727387908236, guid: bf1067ac4cce904429196bd5902ef4c2, type: 3}
      propertyPath: m_LocalRotation.y
      value: 0.68301207
      objectReference: {fileID: 0}
    - target: {fileID: 4016727387908236, guid: bf1067ac4cce904429196bd5902ef4c2, type: 3}
      propertyPath: m_LocalRotation.z
      value: -0.18301295
      objectReference: {fileID: 0}
    m_RemovedComponents: []
  m_SourcePrefab: {fileID: 100100000, guid: bf1067ac4cce904429196bd5902ef4c2, type: 3}
--- !u!4 &1940730415 stripped
Transform:
  m_CorrespondingSourceObject: {fileID: 4016727387908236, guid: bf1067ac4cce904429196bd5902ef4c2,
    type: 3}
  m_PrefabInstance: {fileID: 1940730414}
  m_PrefabAsset: {fileID: 0}
--- !u!1001 &1952420728
PrefabInstance:
  m_ObjectHideFlags: 0
  serializedVersion: 2
  m_Modification:
    m_TransformParent: {fileID: 1439803131}
    m_Modifications:
    - target: {fileID: 4943614044561152, guid: 4d53eec46a23f5e49bce705206cfccb8, type: 3}
      propertyPath: m_RootOrder
      value: 1
      objectReference: {fileID: 0}
    - target: {fileID: 4943614044561152, guid: 4d53eec46a23f5e49bce705206cfccb8, type: 3}
      propertyPath: m_LocalPosition.x
      value: 0.037
      objectReference: {fileID: 0}
    - target: {fileID: 4943614044561152, guid: 4d53eec46a23f5e49bce705206cfccb8, type: 3}
      propertyPath: m_LocalPosition.y
      value: 0.127
      objectReference: {fileID: 0}
    - target: {fileID: 4943614044561152, guid: 4d53eec46a23f5e49bce705206cfccb8, type: 3}
      propertyPath: m_LocalPosition.z
      value: -0.614
      objectReference: {fileID: 0}
    - target: {fileID: 4943614044561152, guid: 4d53eec46a23f5e49bce705206cfccb8, type: 3}
      propertyPath: m_LocalRotation.w
      value: 0.965926
      objectReference: {fileID: 0}
    - target: {fileID: 4943614044561152, guid: 4d53eec46a23f5e49bce705206cfccb8, type: 3}
      propertyPath: m_LocalRotation.x
      value: -0
      objectReference: {fileID: 0}
    - target: {fileID: 4943614044561152, guid: 4d53eec46a23f5e49bce705206cfccb8, type: 3}
      propertyPath: m_LocalRotation.y
      value: -0
      objectReference: {fileID: 0}
    - target: {fileID: 4943614044561152, guid: 4d53eec46a23f5e49bce705206cfccb8, type: 3}
      propertyPath: m_LocalRotation.z
      value: -0.2588186
      objectReference: {fileID: 0}
    m_RemovedComponents: []
  m_SourcePrefab: {fileID: 100100000, guid: 4d53eec46a23f5e49bce705206cfccb8, type: 3}
--- !u!4 &1952420729 stripped
Transform:
  m_CorrespondingSourceObject: {fileID: 4943614044561152, guid: 4d53eec46a23f5e49bce705206cfccb8,
    type: 3}
  m_PrefabInstance: {fileID: 1952420728}
  m_PrefabAsset: {fileID: 0}
--- !u!1001 &1996910498
PrefabInstance:
  m_ObjectHideFlags: 0
  serializedVersion: 2
  m_Modification:
    m_TransformParent: {fileID: 1439803131}
    m_Modifications:
    - target: {fileID: 4542461084504180, guid: a7ad2ea77ce8b7046997418d2425deb3, type: 3}
      propertyPath: m_RootOrder
      value: 9
      objectReference: {fileID: 0}
    - target: {fileID: 4542461084504180, guid: a7ad2ea77ce8b7046997418d2425deb3, type: 3}
      propertyPath: m_LocalPosition.x
      value: 0.712
      objectReference: {fileID: 0}
    - target: {fileID: 4542461084504180, guid: a7ad2ea77ce8b7046997418d2425deb3, type: 3}
      propertyPath: m_LocalPosition.y
      value: 0.1018
      objectReference: {fileID: 0}
    - target: {fileID: 4542461084504180, guid: a7ad2ea77ce8b7046997418d2425deb3, type: 3}
      propertyPath: m_LocalPosition.z
      value: 1.071
      objectReference: {fileID: 0}
    - target: {fileID: 4542461084504180, guid: a7ad2ea77ce8b7046997418d2425deb3, type: 3}
      propertyPath: m_LocalRotation.w
      value: 0.6830138
      objectReference: {fileID: 0}
    - target: {fileID: 4542461084504180, guid: a7ad2ea77ce8b7046997418d2425deb3, type: 3}
      propertyPath: m_LocalRotation.x
      value: -0.18301202
      objectReference: {fileID: 0}
    - target: {fileID: 4542461084504180, guid: a7ad2ea77ce8b7046997418d2425deb3, type: 3}
      propertyPath: m_LocalRotation.y
      value: -0.6830118
      objectReference: {fileID: 0}
    - target: {fileID: 4542461084504180, guid: a7ad2ea77ce8b7046997418d2425deb3, type: 3}
      propertyPath: m_LocalRotation.z
      value: -0.18301268
      objectReference: {fileID: 0}
    m_RemovedComponents: []
  m_SourcePrefab: {fileID: 100100000, guid: a7ad2ea77ce8b7046997418d2425deb3, type: 3}
--- !u!4 &1996910499 stripped
Transform:
  m_CorrespondingSourceObject: {fileID: 4542461084504180, guid: a7ad2ea77ce8b7046997418d2425deb3,
    type: 3}
  m_PrefabInstance: {fileID: 1996910498}
  m_PrefabAsset: {fileID: 0}
--- !u!4 &4004587744756505 stripped
Transform:
  m_CorrespondingSourceObject: {fileID: 7351316694307716260, guid: 88bbbfefff4448c42a5a8e7563d9c3d3,
    type: 3}
  m_PrefabInstance: {fileID: 7353012267851694013}
  m_PrefabAsset: {fileID: 0}
--- !u!4 &4271801174439172 stripped
Transform:
  m_CorrespondingSourceObject: {fileID: 9178390083623100831, guid: 745bde6cbff86324e9e97502bd512bf8,
    type: 3}
  m_PrefabInstance: {fileID: 9182588989538768027}
  m_PrefabAsset: {fileID: 0}
--- !u!4 &4554513602095387 stripped
Transform:
  m_CorrespondingSourceObject: {fileID: 123619725433871607, guid: f89794e92cea2ec4da76895aaa80a343,
    type: 3}
  m_PrefabInstance: {fileID: 119065231167534572}
  m_PrefabAsset: {fileID: 0}
--- !u!1001 &119065231167534572
PrefabInstance:
  m_ObjectHideFlags: 0
  serializedVersion: 2
  m_Modification:
    m_TransformParent: {fileID: 1439803131}
    m_Modifications:
    - target: {fileID: 118477756404735347, guid: f89794e92cea2ec4da76895aaa80a343,
        type: 3}
      propertyPath: m_Name
      value: Ham
      objectReference: {fileID: 0}
    - target: {fileID: 123619725433871607, guid: f89794e92cea2ec4da76895aaa80a343,
        type: 3}
      propertyPath: m_RootOrder
      value: 12
      objectReference: {fileID: 0}
    - target: {fileID: 123619725433871607, guid: f89794e92cea2ec4da76895aaa80a343,
        type: 3}
      propertyPath: m_LocalPosition.x
      value: 1.2940004
      objectReference: {fileID: 0}
    - target: {fileID: 123619725433871607, guid: f89794e92cea2ec4da76895aaa80a343,
        type: 3}
      propertyPath: m_LocalPosition.y
      value: 0.129
      objectReference: {fileID: 0}
    - target: {fileID: 123619725433871607, guid: f89794e92cea2ec4da76895aaa80a343,
        type: 3}
      propertyPath: m_LocalPosition.z
      value: -0.073
      objectReference: {fileID: 0}
    - target: {fileID: 123619725433871607, guid: f89794e92cea2ec4da76895aaa80a343,
        type: 3}
      propertyPath: m_LocalRotation.w
      value: -0.6830098
      objectReference: {fileID: 0}
    - target: {fileID: 123619725433871607, guid: f89794e92cea2ec4da76895aaa80a343,
        type: 3}
      propertyPath: m_LocalRotation.x
      value: -0.18301314
      objectReference: {fileID: 0}
    - target: {fileID: 123619725433871607, guid: f89794e92cea2ec4da76895aaa80a343,
        type: 3}
      propertyPath: m_LocalRotation.y
      value: -0.6830158
      objectReference: {fileID: 0}
    - target: {fileID: 123619725433871607, guid: f89794e92cea2ec4da76895aaa80a343,
        type: 3}
      propertyPath: m_LocalRotation.z
      value: 0.18301141
      objectReference: {fileID: 0}
    - target: {fileID: 123619725433871607, guid: f89794e92cea2ec4da76895aaa80a343,
        type: 3}
      propertyPath: m_LocalEulerAnglesHint.x
      value: 30.000002
      objectReference: {fileID: 0}
    - target: {fileID: 123619725433871607, guid: f89794e92cea2ec4da76895aaa80a343,
        type: 3}
      propertyPath: m_LocalEulerAnglesHint.y
      value: -269.999
      objectReference: {fileID: 0}
    - target: {fileID: 123619725433871607, guid: f89794e92cea2ec4da76895aaa80a343,
        type: 3}
      propertyPath: m_LocalEulerAnglesHint.z
      value: 0
      objectReference: {fileID: 0}
    m_RemovedComponents: []
  m_SourcePrefab: {fileID: 100100000, guid: f89794e92cea2ec4da76895aaa80a343, type: 3}
--- !u!1001 &7353012267851694013
PrefabInstance:
  m_ObjectHideFlags: 0
  serializedVersion: 2
  m_Modification:
    m_TransformParent: {fileID: 1439803131}
    m_Modifications:
    - target: {fileID: 7351316694307716260, guid: 88bbbfefff4448c42a5a8e7563d9c3d3,
        type: 3}
      propertyPath: m_RootOrder
      value: 14
      objectReference: {fileID: 0}
    - target: {fileID: 7351316694307716260, guid: 88bbbfefff4448c42a5a8e7563d9c3d3,
        type: 3}
      propertyPath: m_LocalPosition.x
      value: 1.304
      objectReference: {fileID: 0}
    - target: {fileID: 7351316694307716260, guid: 88bbbfefff4448c42a5a8e7563d9c3d3,
        type: 3}
      propertyPath: m_LocalPosition.y
      value: 0.109
      objectReference: {fileID: 0}
    - target: {fileID: 7351316694307716260, guid: 88bbbfefff4448c42a5a8e7563d9c3d3,
        type: 3}
      propertyPath: m_LocalPosition.z
      value: 1.071
      objectReference: {fileID: 0}
    - target: {fileID: 7351316694307716260, guid: 88bbbfefff4448c42a5a8e7563d9c3d3,
        type: 3}
      propertyPath: m_LocalRotation.w
      value: 0.68301356
      objectReference: {fileID: 0}
    - target: {fileID: 7351316694307716260, guid: 88bbbfefff4448c42a5a8e7563d9c3d3,
        type: 3}
      propertyPath: m_LocalRotation.x
      value: -0.18301214
      objectReference: {fileID: 0}
    - target: {fileID: 7351316694307716260, guid: 88bbbfefff4448c42a5a8e7563d9c3d3,
        type: 3}
      propertyPath: m_LocalRotation.y
      value: -0.68301207
      objectReference: {fileID: 0}
    - target: {fileID: 7351316694307716260, guid: 88bbbfefff4448c42a5a8e7563d9c3d3,
        type: 3}
      propertyPath: m_LocalRotation.z
      value: -0.18301263
      objectReference: {fileID: 0}
    - target: {fileID: 7351316694307716260, guid: 88bbbfefff4448c42a5a8e7563d9c3d3,
        type: 3}
      propertyPath: m_LocalEulerAnglesHint.x
      value: -30.000002
      objectReference: {fileID: 0}
    - target: {fileID: 7351316694307716260, guid: 88bbbfefff4448c42a5a8e7563d9c3d3,
        type: 3}
      propertyPath: m_LocalEulerAnglesHint.y
      value: -90.00001
      objectReference: {fileID: 0}
    - target: {fileID: 7351316694307716260, guid: 88bbbfefff4448c42a5a8e7563d9c3d3,
        type: 3}
      propertyPath: m_LocalEulerAnglesHint.z
      value: 0
      objectReference: {fileID: 0}
    - target: {fileID: 7353825782241993916, guid: 88bbbfefff4448c42a5a8e7563d9c3d3,
        type: 3}
      propertyPath: m_Name
      value: Steak
      objectReference: {fileID: 0}
    m_RemovedComponents: []
  m_SourcePrefab: {fileID: 100100000, guid: 88bbbfefff4448c42a5a8e7563d9c3d3, type: 3}
--- !u!1001 &9182588989538768027
PrefabInstance:
  m_ObjectHideFlags: 0
  serializedVersion: 2
  m_Modification:
    m_TransformParent: {fileID: 1439803131}
    m_Modifications:
    - target: {fileID: 9178390083623100831, guid: 745bde6cbff86324e9e97502bd512bf8,
        type: 3}
      propertyPath: m_RootOrder
      value: 13
      objectReference: {fileID: 0}
    - target: {fileID: 9178390083623100831, guid: 745bde6cbff86324e9e97502bd512bf8,
        type: 3}
      propertyPath: m_LocalPosition.x
      value: 1.3040004
      objectReference: {fileID: 0}
    - target: {fileID: 9178390083623100831, guid: 745bde6cbff86324e9e97502bd512bf8,
        type: 3}
      propertyPath: m_LocalPosition.y
      value: 0.113
      objectReference: {fileID: 0}
    - target: {fileID: 9178390083623100831, guid: 745bde6cbff86324e9e97502bd512bf8,
        type: 3}
      propertyPath: m_LocalPosition.z
      value: 0.497
      objectReference: {fileID: 0}
    - target: {fileID: 9178390083623100831, guid: 745bde6cbff86324e9e97502bd512bf8,
        type: 3}
      propertyPath: m_LocalRotation.w
      value: 0.68301386
      objectReference: {fileID: 0}
    - target: {fileID: 9178390083623100831, guid: 745bde6cbff86324e9e97502bd512bf8,
        type: 3}
      propertyPath: m_LocalRotation.x
      value: -0.18301208
      objectReference: {fileID: 0}
    - target: {fileID: 9178390083623100831, guid: 745bde6cbff86324e9e97502bd512bf8,
        type: 3}
      propertyPath: m_LocalRotation.y
      value: -0.6830118
      objectReference: {fileID: 0}
    - target: {fileID: 9178390083623100831, guid: 745bde6cbff86324e9e97502bd512bf8,
        type: 3}
      propertyPath: m_LocalRotation.z
      value: -0.18301263
      objectReference: {fileID: 0}
    - target: {fileID: 9178390083623100831, guid: 745bde6cbff86324e9e97502bd512bf8,
        type: 3}
      propertyPath: m_LocalEulerAnglesHint.x
      value: -30.000002
      objectReference: {fileID: 0}
    - target: {fileID: 9178390083623100831, guid: 745bde6cbff86324e9e97502bd512bf8,
        type: 3}
      propertyPath: m_LocalEulerAnglesHint.y
      value: -90.00001
      objectReference: {fileID: 0}
    - target: {fileID: 9178390083623100831, guid: 745bde6cbff86324e9e97502bd512bf8,
        type: 3}
      propertyPath: m_LocalEulerAnglesHint.z
      value: 0
      objectReference: {fileID: 0}
    - target: {fileID: 9181285278828432147, guid: 745bde6cbff86324e9e97502bd512bf8,
        type: 3}
      propertyPath: m_Name
      value: Ribs
      objectReference: {fileID: 0}
    m_RemovedComponents: []
  m_SourcePrefab: {fileID: 100100000, guid: 745bde6cbff86324e9e97502bd512bf8, type: 3}
